…
7.  Make a new tibble with a subset of your data, with variables and
    observations that you are interested in exploring.

``` r
#I am interested in the mean columns that are somewhat uncorrelated (need further test)
reduced_cancer <- cancer_sample %>% select(ID, diagnosis, radius_mean, texture_mean, compactness_mean, concavity_mean, smoothness_mean, symmetry_mean)
reduced_cancer
```

    ## # A tibble: 569 × 8
    ##          ID diagnosis radius_mean texture_mean compactness_mean concavity_mean
    ##       <dbl> <chr>           <dbl>        <dbl>            <dbl>          <dbl>
    ##  1   842302 M                18.0         10.4           0.278          0.300 
    ##  2   842517 M                20.6         17.8           0.0786         0.0869
    ##  3 84300903 M                19.7         21.2           0.160          0.197 
    ##  4 84348301 M                11.4         20.4           0.284          0.241 
    ##  5 84358402 M                20.3         14.3           0.133          0.198 
    ##  6   843786 M                12.4         15.7           0.17           0.158 
    ##  7   844359 M                18.2         20.0           0.109          0.113 
    ##  8 84458202 M                13.7         20.8           0.164          0.0937
    ##  9   844981 M                13           21.8           0.193          0.186 
    ## 10 84501001 M                12.5         24.0           0.240          0.227 
    ## # … with 559 more rows, and 2 more variables: smoothness_mean <dbl>,
    ## #   symmetry_mean <dbl>
…
