…
### 2.1 (2.5 points)

Based on the definition above, can you identify if your data is tidy or
untidy? Go through all your columns, or if you have \>8 variables, just
pick 8, and explain whether the data is untidy or tidy.

<!--------------------------- Start your work below --------------------------->

``` r
cancer_sample
```

    ## # A tibble: 569 × 32
    ##          ID diagnosis radius_mean texture_mean perimeter_mean area_mean
    ##       <dbl> <chr>           <dbl>        <dbl>          <dbl>     <dbl>
    ##  1   842302 M                18.0         10.4          123.      1001 
    ##  2   842517 M                20.6         17.8          133.      1326 
    ##  3 84300903 M                19.7         21.2          130       1203 
    ##  4 84348301 M                11.4         20.4           77.6      386.
    ##  5 84358402 M                20.3         14.3          135.      1297 
    ##  6   843786 M                12.4         15.7           82.6      477.
    ##  7   844359 M                18.2         20.0          120.      1040 
    ##  8 84458202 M                13.7         20.8           90.2      578.
    ##  9   844981 M                13           21.8           87.5      520.
    ## 10 84501001 M                12.5         24.0           84.0      476.
    ## # … with 559 more rows, and 26 more variables: smoothness_mean <dbl>,
    ## #   compactness_mean <dbl>, concavity_mean <dbl>, concave_points_mean <dbl>,
    ## #   symmetry_mean <dbl>, fractal_dimension_mean <dbl>, radius_se <dbl>,
    ## #   texture_se <dbl>, perimeter_se <dbl>, area_se <dbl>, smoothness_se <dbl>,
    ## #   compactness_se <dbl>, concavity_se <dbl>, concave_points_se <dbl>,
    ## #   symmetry_se <dbl>, fractal_dimension_se <dbl>, radius_worst <dbl>,
    ## #   texture_worst <dbl>, perimeter_worst <dbl>, area_worst <dbl>, …

The data is tidy because each row is an observation, each column is a
variable, and each cell is a value.

Pick 8 variables:

``` r
cancer_sample <- cancer_sample %>% select(diagnosis, radius_mean, texture_mean, smoothness_mean, compactness_mean, concavity_mean, concave_points_mean, symmetry_mean)
cancer_sample
```

    ## # A tibble: 569 × 8
    ##    diagnosis radius_mean texture_mean smoothness_mean compactness_mean
    ##    <chr>           <dbl>        <dbl>           <dbl>            <dbl>
    ##  1 M                18.0         10.4          0.118            0.278 
    ##  2 M                20.6         17.8          0.0847           0.0786
    ##  3 M                19.7         21.2          0.110            0.160 
    ##  4 M                11.4         20.4          0.142            0.284 
    ##  5 M                20.3         14.3          0.100            0.133 
    ##  6 M                12.4         15.7          0.128            0.17  
    ##  7 M                18.2         20.0          0.0946           0.109 
    ##  8 M                13.7         20.8          0.119            0.164 
    ##  9 M                13           21.8          0.127            0.193 
    ## 10 M                12.5         24.0          0.119            0.240 
    ## # … with 559 more rows, and 3 more variables: concavity_mean <dbl>,
    ## #   concave_points_mean <dbl>, symmetry_mean <dbl>
…
Be sure to explain your reasoning for this task. Show us the “before”
and “after”.

<!--------------------------- Start your work below --------------------------->

Untidy data: (concatenate two variables together in one column)

``` r
cancer_sample$concavity_summary <- paste(cancer_sample$concavity_mean, cancer_sample$concave_points_mean, sep= "_")
cancer_sample
```

    ## # A tibble: 569 × 9
    ##    diagnosis radius_mean texture_mean smoothness_mean compactness_mean
    ##    <chr>           <dbl>        <dbl>           <dbl>            <dbl>
    ##  1 M                18.0         10.4          0.118            0.278 
    ##  2 M                20.6         17.8          0.0847           0.0786
    ##  3 M                19.7         21.2          0.110            0.160 
    ##  4 M                11.4         20.4          0.142            0.284 
    ##  5 M                20.3         14.3          0.100            0.133 
    ##  6 M                12.4         15.7          0.128            0.17  
    ##  7 M                18.2         20.0          0.0946           0.109 
    ##  8 M                13.7         20.8          0.119            0.164 
    ##  9 M                13           21.8          0.127            0.193 
    ## 10 M                12.5         24.0          0.119            0.240 
    ## # … with 559 more rows, and 4 more variables: concavity_mean <dbl>,
    ## #   concave_points_mean <dbl>, symmetry_mean <dbl>, concavity_summary <chr>

Tidy Data: (Separate concavity_summary)

``` r
cancer_sample <- cancer_sample %>% separate(concavity_summary, c("concavity_mean", "concave_points_mean"), "_")
cancer_sample
```

    ## # A tibble: 569 × 8
    ##    diagnosis radius_mean texture_mean smoothness_mean compactness_mean
    ##    <chr>           <dbl>        <dbl>           <dbl>            <dbl>
    ##  1 M                18.0         10.4          0.118            0.278 
    ##  2 M                20.6         17.8          0.0847           0.0786
    ##  3 M                19.7         21.2          0.110            0.160 
    ##  4 M                11.4         20.4          0.142            0.284 
    ##  5 M                20.3         14.3          0.100            0.133 
    ##  6 M                12.4         15.7          0.128            0.17  
    ##  7 M                18.2         20.0          0.0946           0.109 
    ##  8 M                13.7         20.8          0.119            0.164 
    ##  9 M                13           21.8          0.127            0.193 
    ## 10 M                12.5         24.0          0.119            0.240 
    ## # … with 559 more rows, and 3 more variables: symmetry_mean <dbl>,
    ## #   concavity_mean <chr>, concave_points_mean <chr>
…
reduced_cancer <- reduced_cancer %>%
  filter(!(abs(concavity_mean - median(concavity_mean)) > 2*sd(concavity_mean))) 

reduced_cancer <- reduced_cancer %>%
  filter(!(abs(concave_points_mean - median(concave_points_mean)) > 2*sd(concave_points_mean)))

##arrange diagnosis and radius
reduced_cancer <- reduced_cancer %>% arrange(reduced_cancer, diagnosis, radius_mean)

reduced_cancer
```

    ## # A tibble: 427 × 5
    ##    diagnosis radius_mean smoothness_mean concavity_mean concave_points_mean
    ##    <chr>           <dbl>           <dbl>          <dbl>               <dbl>
    ##  1 B                6.98          0.117          0                  0      
    ##  2 B                7.69          0.0867         0.0925             0.0136 
    ##  3 B                7.73          0.0810         0                  0      
    ##  4 B                8.20          0.086          0.0159             0.00592
    ##  5 B                8.22          0.0940         0.132              0.0217 
    ##  6 B                8.57          0.104          0.0256             0.0151 
    ##  7 B                8.60          0.107          0                  0      
    ##  8 B                8.62          0.0975         0.0206             0.00780
    ##  9 B                8.67          0.0914         0                  0      
    ## 10 B                8.73          0.115          0.0413             0.0192 
    ## # … with 417 more rows
…
